====== Li (10) into Layer 1                     =======
        SRIM-2013.00
==================================================
      ION and final RECOIL ATOM Distributions     
 See  SRIM Outputs\TDATA.txt for calculation details
==================================================
--------------------------------------------------------------------
    Recoil/Damage Calculations made with Kinchin-Pease Estimates    
--------------------------------------------------------------------
----------------------------------------------------------------
  There are NO RECOILS unless a full TRIM calculation is made.   
----------------------------------------------------------------
See file :  SRIM Outputs\TDATA.txt   for details of calculation
 Ion    = Li   Energy = 7  keV
============= TARGET MATERIAL ======================================
Layer  1 : beta-Sn
Layer Width =     5.E+03 A   Layer # 1- Density = 3.685E22 atoms/cm3 = 7.265 g/cm3
  Layer # 1- Sn = 100  Atomic Percent = 100  Mass Percent
====================================================================
 Total Ions calculated =9999.47
 Ion Average Range =   380.2E+00 A   Straggling =   207.6E+00 A
 Ion Lateral Range =   221.9E+00 A   Straggling =   276.5E+00 A
 Ion Radial  Range =   350.4E+00 A   Straggling =   176.3E+00 A
====================================================================
 Transmitted Ions =;  Backscattered Ions =2425
 (These are not included in Skewne- and Kurtosis below.)

 Range Skewne- = 000.4983  &= [-(X-Rp)^3]/[N*Straggle^3]
 Range Kurtosis = 002.8479  &= [-(X-Rp)^4]/[N*Straggle^4]
 Statistical definitions above are those used in VLSI implant modelling.
====================================================================
=================================================================
  Table Distribution Units are >>>  (Atoms/cm3) / (Atoms/cm2)  <<<  
=================================================================
   DEPTH         Li       Recoil     
   (Ang.)       Ions     Distribution
-----------  ----------  ------------
450100.E-04  3.5558E+04  0.0000E+00
900100.E-04  7.2893E+04  0.0000E+00
135010.E-03  9.2005E+04  0.0000E+00
180010.E-03  1.0912E+05  0.0000E+00
225010.E-03  1.2823E+05  0.0000E+00
270010.E-03  1.2956E+05  0.0000E+00
315010.E-03  1.4090E+05  0.0000E+00
360010.E-03  1.2890E+05  0.0000E+00
405010.E-03  1.3423E+05  0.0000E+00
450010.E-03  1.2201E+05  0.0000E+00
495010.E-03  1.1334E+05  0.0000E+00
540010.E-03  1.0556E+05  0.0000E+00
585010.E-03  8.9338E+04  0.0000E+00
630010.E-03  6.8892E+04  0.0000E+00
675010.E-03  5.3114E+04  0.0000E+00
720010.E-03  5.0447E+04  0.0000E+00
765010.E-03  3.1780E+04  0.0000E+00
810010.E-03  2.7335E+04  0.0000E+00
855010.E-03  1.6001E+04  0.0000E+00
900010.E-03  1.4890E+04  0.0000E+00
945010.E-03  7.7782E+03  0.0000E+00
990010.E-03  4.0002E+03  0.0000E+00
103501.E-02  4.0002E+03  0.0000E+00
108001.E-02  2.0001E+03  0.0000E+00
112501.E-02  6.6670E+02  0.0000E+00
117001.E-02  2.2223E+02  0.0000E+00
121501.E-02  4.4447E+02  0.0000E+00
126001.E-02  0.0000E+00  0.0000E+00
130501.E-02  0.0000E+00  0.0000E+00
135001.E-02  2.2223E+02  0.0000E+00
139501.E-02  0.0000E+00  0.0000E+00
144001.E-02  0.0000E+00  0.0000E+00
148501.E-02  0.0000E+00  0.0000E+00
153001.E-02  0.0000E+00  0.0000E+00
157501.E-02  0.0000E+00  0.0000E+00
162001.E-02  0.0000E+00  0.0000E+00
166501.E-02  0.0000E+00  0.0000E+00
171001.E-02  0.0000E+00  0.0000E+00
175501.E-02  0.0000E+00  0.0000E+00
180001.E-02  0.0000E+00  0.0000E+00
184501.E-02  0.0000E+00  0.0000E+00
189001.E-02  0.0000E+00  0.0000E+00
193501.E-02  0.0000E+00  0.0000E+00
198001.E-02  0.0000E+00  0.0000E+00
202501.E-02  0.0000E+00  0.0000E+00
207001.E-02  0.0000E+00  0.0000E+00
211501.E-02  0.0000E+00  0.0000E+00
216001.E-02  0.0000E+00  0.0000E+00
220501.E-02  0.0000E+00  0.0000E+00
225001.E-02  0.0000E+00  0.0000E+00
229501.E-02  0.0000E+00  0.0000E+00
234001.E-02  0.0000E+00  0.0000E+00
238501.E-02  0.0000E+00  0.0000E+00
243001.E-02  0.0000E+00  0.0000E+00
247501.E-02  0.0000E+00  0.0000E+00
252001.E-02  0.0000E+00  0.0000E+00
256501.E-02  0.0000E+00  0.0000E+00
261001.E-02  0.0000E+00  0.0000E+00
265501.E-02  0.0000E+00  0.0000E+00
270001.E-02  0.0000E+00  0.0000E+00
274501.E-02  0.0000E+00  0.0000E+00
279001.E-02  0.0000E+00  0.0000E+00
283501.E-02  0.0000E+00  0.0000E+00
288001.E-02  0.0000E+00  0.0000E+00
292501.E-02  0.0000E+00  0.0000E+00
297001.E-02  0.0000E+00  0.0000E+00
301501.E-02  0.0000E+00  0.0000E+00
306001.E-02  0.0000E+00  0.0000E+00
310501.E-02  0.0000E+00  0.0000E+00
315001.E-02  0.0000E+00  0.0000E+00
319501.E-02  0.0000E+00  0.0000E+00
324001.E-02  0.0000E+00  0.0000E+00
328501.E-02  0.0000E+00  0.0000E+00
333001.E-02  0.0000E+00  0.0000E+00
337501.E-02  0.0000E+00  0.0000E+00
342001.E-02  0.0000E+00  0.0000E+00
346501.E-02  0.0000E+00  0.0000E+00
351001.E-02  0.0000E+00  0.0000E+00
355501.E-02  0.0000E+00  0.0000E+00
360001.E-02  0.0000E+00  0.0000E+00
364501.E-02  0.0000E+00  0.0000E+00
369001.E-02  0.0000E+00  0.0000E+00
373501.E-02  0.0000E+00  0.0000E+00
378001.E-02  0.0000E+00  0.0000E+00
382501.E-02  0.0000E+00  0.0000E+00
387001.E-02  0.0000E+00  0.0000E+00
391501.E-02  0.0000E+00  0.0000E+00
396001.E-02  0.0000E+00  0.0000E+00
400501.E-02  0.0000E+00  0.0000E+00
405001.E-02  0.0000E+00  0.0000E+00
409501.E-02  0.0000E+00  0.0000E+00
414001.E-02  0.0000E+00  0.0000E+00
418501.E-02  0.0000E+00  0.0000E+00
423001.E-02  0.0000E+00  0.0000E+00
427501.E-02  0.0000E+00  0.0000E+00
432001.E-02  0.0000E+00  0.0000E+00
436501.E-02  0.0000E+00  0.0000E+00
441001.E-02  0.0000E+00  0.0000E+00
445501.E-02  0.0000E+00  0.0000E+00
450001.E-02  0.0000E+00  0.0000E+00
